INDEX VERSION 1.3+E:\MS3 training\Bitbucket\ehotel\ehotel_workspace\.metadata\.plugins\org.eclipse.wst.jsdt.core\indexes
511196339.index
456804695.index
3830541200.index
3900375484.index
3958373747.index
3467590588.index
2242491617.index
2242491617.index
3663375326.index
726308182.index
