127.0.0.1 - - [01/Aug/2016:00:04:44 -0400] "GET / HTTP/1.1" 404 951
0:0:0:0:0:0:0:1 - - [01/Aug/2016:00:04:48 -0400] "GET /ehotel/ HTTP/1.1" 200 1061
0:0:0:0:0:0:0:1 - - [01/Aug/2016:00:04:49 -0400] "GET /ehotel/static/css/main_style.css HTTP/1.1" 200 1063
0:0:0:0:0:0:0:1 - - [01/Aug/2016:00:04:49 -0400] "GET /ehotel/static/image/logo3.png HTTP/1.1" 304 -
0:0:0:0:0:0:0:1 - - [01/Aug/2016:00:04:58 -0400] "GET /ehotel/j_spring_security_logout;jsessionid=689F7653430A9EAB99211B5AD732BBF0 HTTP/1.1" 302 -
0:0:0:0:0:0:0:1 - - [01/Aug/2016:00:05:00 -0400] "GET /ehotel/loggedout HTTP/1.1" 200 944
0:0:0:0:0:0:0:1 - - [01/Aug/2016:00:05:02 -0400] "GET /ehotel/login HTTP/1.1" 200 1723
0:0:0:0:0:0:0:1 - - [01/Aug/2016:00:05:14 -0400] "POST /ehotel/j_spring_security_check HTTP/1.1" 302 -
0:0:0:0:0:0:0:1 - - [01/Aug/2016:00:05:15 -0400] "GET /ehotel/employee HTTP/1.1" 200 2580
0:0:0:0:0:0:0:1 - - [01/Aug/2016:00:05:28 -0400] "POST /ehotel/addRoom/submit HTTP/1.1" 200 2652
0:0:0:0:0:0:0:1 - - [01/Aug/2016:00:05:54 -0400] "POST /ehotel/addRoom/submit HTTP/1.1" 200 2644
0:0:0:0:0:0:0:1 - - [01/Aug/2016:00:06:05 -0400] "POST /ehotel/searchRoom/submit HTTP/1.1" 200 2772
0:0:0:0:0:0:0:1 - - [01/Aug/2016:00:06:12 -0400] "GET /ehotel/j_spring_security_logout HTTP/1.1" 302 -
0:0:0:0:0:0:0:1 - - [01/Aug/2016:00:06:12 -0400] "GET /ehotel/loggedout HTTP/1.1" 200 944
0:0:0:0:0:0:0:1 - - [01/Aug/2016:00:06:14 -0400] "GET /ehotel/login HTTP/1.1" 200 1723
0:0:0:0:0:0:0:1 - - [01/Aug/2016:00:06:26 -0400] "POST /ehotel/j_spring_security_check HTTP/1.1" 302 -
0:0:0:0:0:0:0:1 - - [01/Aug/2016:00:06:26 -0400] "GET /ehotel/customer HTTP/1.1" 200 1037
0:0:0:0:0:0:0:1 - - [01/Aug/2016:11:21:07 -0400] "GET /ehotel/j_spring_security_logout HTTP/1.1" 302 -
0:0:0:0:0:0:0:1 - - [01/Aug/2016:11:21:07 -0400] "GET /ehotel/loggedout HTTP/1.1" 200 944
0:0:0:0:0:0:0:1 - - [01/Aug/2016:11:21:07 -0400] "GET /ehotel/static/css/main_style.css HTTP/1.1" 304 -
0:0:0:0:0:0:0:1 - - [01/Aug/2016:11:21:07 -0400] "GET /ehotel/static/image/logo3.png HTTP/1.1" 304 -
0:0:0:0:0:0:0:1 - - [01/Aug/2016:11:21:08 -0400] "GET /ehotel/login HTTP/1.1" 200 1723
0:0:0:0:0:0:0:1 - - [01/Aug/2016:11:21:13 -0400] "GET /ehotel/newaccount HTTP/1.1" 200 2192
0:0:0:0:0:0:0:1 - - [01/Aug/2016:11:21:44 -0400] "GET /ehotel/ HTTP/1.1" 200 953
0:0:0:0:0:0:0:1 - - [01/Aug/2016:11:21:47 -0400] "GET /ehotel/login HTTP/1.1" 200 1723
0:0:0:0:0:0:0:1 - - [01/Aug/2016:11:21:48 -0400] "GET /ehotel/newaccount HTTP/1.1" 200 2192
0:0:0:0:0:0:0:1 - - [01/Aug/2016:11:45:51 -0400] "GET /ehotel/login HTTP/1.1" 200 1723
0:0:0:0:0:0:0:1 - - [01/Aug/2016:11:45:55 -0400] "GET /ehotel/newaccount HTTP/1.1" 200 2192
127.0.0.1 - - [01/Aug/2016:12:11:56 -0400] "GET / HTTP/1.1" 404 951
0:0:0:0:0:0:0:1 - - [01/Aug/2016:12:12:01 -0400] "GET /ehotel/ HTTP/1.1" 200 1060
0:0:0:0:0:0:0:1 - - [01/Aug/2016:12:12:01 -0400] "GET /ehotel/static/js/jquery.js HTTP/1.1" 200 93064
0:0:0:0:0:0:0:1 - - [01/Aug/2016:12:12:02 -0400] "GET /ehotel/static/js/myjs.js HTTP/1.1" 200 357
0:0:0:0:0:0:0:1 - - [01/Aug/2016:12:12:04 -0400] "GET /ehotel/login HTTP/1.1" 200 1830
0:0:0:0:0:0:0:1 - - [01/Aug/2016:12:12:06 -0400] "GET /ehotel/newaccount HTTP/1.1" 200 2299
0:0:0:0:0:0:0:1 - - [01/Aug/2016:12:12:11 -0400] "GET /ehotel/login HTTP/1.1" 200 1830
0:0:0:0:0:0:0:1 - - [01/Aug/2016:12:12:11 -0400] "GET /ehotel/static/js/myjs.js HTTP/1.1" 304 -
0:0:0:0:0:0:0:1 - - [01/Aug/2016:12:12:11 -0400] "GET /ehotel/static/js/jquery.js HTTP/1.1" 304 -
0:0:0:0:0:0:0:1 - - [01/Aug/2016:12:12:11 -0400] "GET /ehotel/static/css/main_style.css HTTP/1.1" 304 -
0:0:0:0:0:0:0:1 - - [01/Aug/2016:12:12:11 -0400] "GET /ehotel/static/image/logo3.png HTTP/1.1" 304 -
0:0:0:0:0:0:0:1 - - [01/Aug/2016:12:12:14 -0400] "GET /ehotel/login HTTP/1.1" 200 1830
0:0:0:0:0:0:0:1 - - [01/Aug/2016:12:12:17 -0400] "GET /ehotel/login HTTP/1.1" 200 1830
0:0:0:0:0:0:0:1 - - [01/Aug/2016:12:12:20 -0400] "GET /ehotel/newaccount HTTP/1.1" 200 2299
0:0:0:0:0:0:0:1 - - [01/Aug/2016:12:25:40 -0400] "GET /ehotel/static/js/myjs.js HTTP/1.1" 304 -
0:0:0:0:0:0:0:1 - - [01/Aug/2016:12:25:40 -0400] "GET /ehotel/static/js/jquery.js HTTP/1.1" 304 -
0:0:0:0:0:0:0:1 - - [01/Aug/2016:12:25:40 -0400] "GET /ehotel/login HTTP/1.1" 200 1918
0:0:0:0:0:0:0:1 - - [01/Aug/2016:12:25:40 -0400] "GET /ehotel/static/css/main_style.css HTTP/1.1" 304 -
0:0:0:0:0:0:0:1 - - [01/Aug/2016:12:25:40 -0400] "GET /ehotel/static/image/logo3.png HTTP/1.1" 304 -
0:0:0:0:0:0:0:1 - - [01/Aug/2016:12:25:44 -0400] "GET /ehotel/newaccount HTTP/1.1" 200 2387
0:0:0:0:0:0:0:1 - - [01/Aug/2016:12:25:46 -0400] "POST /ehotel/createaccount HTTP/1.1" 200 2782
127.0.0.1 - - [01/Aug/2016:12:26:20 -0400] "GET / HTTP/1.1" 404 951
0:0:0:0:0:0:0:1 - - [01/Aug/2016:12:26:22 -0400] "GET /ehotel/ HTTP/1.1" 200 1148
0:0:0:0:0:0:0:1 - - [01/Aug/2016:12:26:25 -0400] "GET /ehotel/login HTTP/1.1" 200 1918
0:0:0:0:0:0:0:1 - - [01/Aug/2016:12:26:29 -0400] "GET /ehotel/newaccount HTTP/1.1" 200 2387
0:0:0:0:0:0:0:1 - - [01/Aug/2016:12:29:32 -0400] "GET /ehotel/login HTTP/1.1" 200 1918
0:0:0:0:0:0:0:1 - - [01/Aug/2016:12:29:32 -0400] "GET /ehotel/static/css/main_style.css HTTP/1.1" 304 -
0:0:0:0:0:0:0:1 - - [01/Aug/2016:12:29:32 -0400] "GET /ehotel/static/js/myjs.js HTTP/1.1" 304 -
0:0:0:0:0:0:0:1 - - [01/Aug/2016:12:29:33 -0400] "GET /ehotel/static/js/jquery.js HTTP/1.1" 304 -
0:0:0:0:0:0:0:1 - - [01/Aug/2016:12:29:34 -0400] "GET /ehotel/static/image/logo3.png HTTP/1.1" 304 -
127.0.0.1 - - [01/Aug/2016:12:32:28 -0400] "GET / HTTP/1.1" 404 951
0:0:0:0:0:0:0:1 - - [01/Aug/2016:12:32:37 -0400] "GET /ehotel/ HTTP/1.1" 200 1236
0:0:0:0:0:0:0:1 - - [01/Aug/2016:12:32:39 -0400] "GET /favicon.ico HTTP/1.1" 404 973
0:0:0:0:0:0:0:1 - - [01/Aug/2016:12:32:39 -0400] "GET /favicon.ico HTTP/1.1" 404 973
0:0:0:0:0:0:0:1 - - [01/Aug/2016:12:32:41 -0400] "GET /ehotel/login;jsessionid=7B3B10CEFB5A655B60CCBD7E687CCBC0 HTTP/1.1" 200 1918
0:0:0:0:0:0:0:1 - - [01/Aug/2016:12:32:41 -0400] "GET /ehotel/static/js/jquery.js HTTP/1.1" 304 -
0:0:0:0:0:0:0:1 - - [01/Aug/2016:12:32:47 -0400] "GET /ehotel/newaccount HTTP/1.1" 200 2387
0:0:0:0:0:0:0:1 - - [01/Aug/2016:14:22:50 -0400] "GET /ehotel/login HTTP/1.1" 200 1918
0:0:0:0:0:0:0:1 - - [01/Aug/2016:14:22:50 -0400] "GET /ehotel/static/js/jquery.js HTTP/1.1" 304 -
0:0:0:0:0:0:0:1 - - [01/Aug/2016:14:22:50 -0400] "GET /ehotel/static/css/main_style.css HTTP/1.1" 304 -
0:0:0:0:0:0:0:1 - - [01/Aug/2016:16:14:56 -0400] "GET /ehotel/login HTTP/1.1" 200 1938
0:0:0:0:0:0:0:1 - - [01/Aug/2016:16:14:56 -0400] "GET /ehotel/static/css/main_style.css HTTP/1.1" 200 1063
0:0:0:0:0:0:0:1 - - [01/Aug/2016:16:14:56 -0400] "GET /ehotel/static/js/jquery.js HTTP/1.1" 200 93064
0:0:0:0:0:0:0:1 - - [01/Aug/2016:16:14:56 -0400] "GET /ehotel/static/js/myjs.js HTTP/1.1" 200 357
0:0:0:0:0:0:0:1 - - [01/Aug/2016:16:14:56 -0400] "GET /ehotel/static/image/logo3.png HTTP/1.1" 200 95308
0:0:0:0:0:0:0:1 - - [01/Aug/2016:16:15:03 -0400] "GET /ehotel/j_spring_security_logout HTTP/1.1" 302 -
0:0:0:0:0:0:0:1 - - [01/Aug/2016:16:15:03 -0400] "GET /ehotel/loggedout HTTP/1.1" 200 1139
0:0:0:0:0:0:0:1 - - [01/Aug/2016:16:15:06 -0400] "GET /ehotel/login HTTP/1.1" 200 1918
0:0:0:0:0:0:0:1 - - [01/Aug/2016:16:15:09 -0400] "GET /ehotel/newaccount HTTP/1.1" 200 2387
0:0:0:0:0:0:0:1 - - [01/Aug/2016:16:17:27 -0400] "GET /ehotel/login HTTP/1.1" 200 1918
0:0:0:0:0:0:0:1 - - [01/Aug/2016:16:17:27 -0400] "GET /ehotel/static/css/main_style.css HTTP/1.1" 304 -
0:0:0:0:0:0:0:1 - - [01/Aug/2016:16:17:27 -0400] "GET /ehotel/static/js/myjs.js HTTP/1.1" 304 -
0:0:0:0:0:0:0:1 - - [01/Aug/2016:16:17:27 -0400] "GET /ehotel/static/js/jquery.js HTTP/1.1" 304 -
0:0:0:0:0:0:0:1 - - [01/Aug/2016:16:17:28 -0400] "GET /ehotel/static/image/logo3.png HTTP/1.1" 304 -
0:0:0:0:0:0:0:1 - - [01/Aug/2016:16:19:16 -0400] "GET /ehotel/login HTTP/1.1" 200 1918
0:0:0:0:0:0:0:1 - - [01/Aug/2016:16:19:16 -0400] "GET /ehotel/static/css/main_style.css HTTP/1.1" 304 -
0:0:0:0:0:0:0:1 - - [01/Aug/2016:16:19:16 -0400] "GET /ehotel/static/js/myjs.js HTTP/1.1" 304 -
0:0:0:0:0:0:0:1 - - [01/Aug/2016:16:19:16 -0400] "GET /ehotel/static/js/jquery.js HTTP/1.1" 304 -
0:0:0:0:0:0:0:1 - - [01/Aug/2016:16:19:17 -0400] "GET /ehotel/static/image/logo3.png HTTP/1.1" 304 -
127.0.0.1 - - [01/Aug/2016:16:21:37 -0400] "GET / HTTP/1.1" 404 951
0:0:0:0:0:0:0:1 - - [01/Aug/2016:16:21:40 -0400] "GET /ehotel/ HTTP/1.1" 200 1157
0:0:0:0:0:0:0:1 - - [01/Aug/2016:16:21:43 -0400] "GET /ehotel/login HTTP/1.1" 200 1927
0:0:0:0:0:0:0:1 - - [01/Aug/2016:16:21:46 -0400] "GET /ehotel/newaccount HTTP/1.1" 200 2396
127.0.0.1 - - [01/Aug/2016:16:25:00 -0400] "GET / HTTP/1.1" 404 951
0:0:0:0:0:0:0:1 - - [01/Aug/2016:16:25:04 -0400] "GET /ehotel/ HTTP/1.1" 200 1148
0:0:0:0:0:0:0:1 - - [01/Aug/2016:16:25:07 -0400] "GET /ehotel/login HTTP/1.1" 200 1918
0:0:0:0:0:0:0:1 - - [01/Aug/2016:16:25:10 -0400] "GET /ehotel/newaccount HTTP/1.1" 200 2387
0:0:0:0:0:0:0:1 - - [01/Aug/2016:16:25:21 -0400] "GET /ehotel/login HTTP/1.1" 200 1918
0:0:0:0:0:0:0:1 - - [01/Aug/2016:16:25:21 -0400] "GET /ehotel/static/js/myjs.js HTTP/1.1" 304 -
0:0:0:0:0:0:0:1 - - [01/Aug/2016:16:25:21 -0400] "GET /ehotel/static/js/jquery.js HTTP/1.1" 200 93065
0:0:0:0:0:0:0:1 - - [01/Aug/2016:16:25:21 -0400] "GET /ehotel/static/css/main_style.css HTTP/1.1" 304 -
0:0:0:0:0:0:0:1 - - [01/Aug/2016:16:25:22 -0400] "GET /ehotel/static/image/logo3.png HTTP/1.1" 304 -
0:0:0:0:0:0:0:1 - - [01/Aug/2016:16:26:15 -0400] "GET /ehotel/login HTTP/1.1" 200 1918
0:0:0:0:0:0:0:1 - - [01/Aug/2016:16:26:35 -0400] "GET /ehotel/login HTTP/1.1" 200 1918
0:0:0:0:0:0:0:1 - - [01/Aug/2016:16:26:35 -0400] "GET /ehotel/static/css/main_style.css HTTP/1.1" 304 -
0:0:0:0:0:0:0:1 - - [01/Aug/2016:16:26:35 -0400] "GET /ehotel/static/js/myjs.js HTTP/1.1" 304 -
0:0:0:0:0:0:0:1 - - [01/Aug/2016:16:26:35 -0400] "GET /ehotel/static/js/jquery.js HTTP/1.1" 304 -
0:0:0:0:0:0:0:1 - - [01/Aug/2016:16:26:36 -0400] "GET /ehotel/static/image/logo3.png HTTP/1.1" 304 -
0:0:0:0:0:0:0:1 - - [01/Aug/2016:16:26:51 -0400] "GET /ehotel/newaccount HTTP/1.1" 200 2387
0:0:0:0:0:0:0:1 - - [01/Aug/2016:16:26:51 -0400] "GET /ehotel/static/js/jquery.js HTTP/1.1" 304 -
0:0:0:0:0:0:0:1 - - [01/Aug/2016:16:26:53 -0400] "POST /ehotel/createaccount HTTP/1.1" 200 2782
0:0:0:0:0:0:0:1 - - [01/Aug/2016:16:26:58 -0400] "POST /ehotel/createaccount HTTP/1.1" 200 2721
127.0.0.1 - - [01/Aug/2016:16:34:45 -0400] "GET / HTTP/1.1" 404 951
0:0:0:0:0:0:0:1 - - [01/Aug/2016:16:34:50 -0400] "GET /ehotel/ HTTP/1.1" 200 1153
0:0:0:0:0:0:0:1 - - [01/Aug/2016:16:34:50 -0400] "GET /ehotel/static/js/jquery.js HTTP/1.1" 304 -
0:0:0:0:0:0:0:1 - - [01/Aug/2016:16:34:53 -0400] "GET /ehotel/login HTTP/1.1" 200 1923
0:0:0:0:0:0:0:1 - - [01/Aug/2016:16:34:56 -0400] "GET /ehotel/newaccount HTTP/1.1" 200 3398
0:0:0:0:0:0:0:1 - - [01/Aug/2016:16:35:11 -0400] "GET /ehotel/login HTTP/1.1" 200 1923
0:0:0:0:0:0:0:1 - - [01/Aug/2016:16:35:18 -0400] "GET /ehotel/newaccount HTTP/1.1" 200 3398
0:0:0:0:0:0:0:1 - - [01/Aug/2016:16:35:46 -0400] "GET /ehotel/login HTTP/1.1" 200 1923
0:0:0:0:0:0:0:1 - - [01/Aug/2016:16:36:13 -0400] "GET /ehotel/newaccount HTTP/1.1" 200 3398
0:0:0:0:0:0:0:1 - - [01/Aug/2016:16:36:13 -0400] "GET /ehotel/static/js/jquery.js HTTP/1.1" 304 -
0:0:0:0:0:0:0:1 - - [01/Aug/2016:16:36:15 -0400] "POST /ehotel/createaccount HTTP/1.1" 200 3793
0:0:0:0:0:0:0:1 - - [01/Aug/2016:16:36:29 -0400] "GET /ehotel/login HTTP/1.1" 200 1923
0:0:0:0:0:0:0:1 - - [01/Aug/2016:16:37:36 -0400] "GET /ehotel/static/js/myjs.js HTTP/1.1" 304 -
0:0:0:0:0:0:0:1 - - [01/Aug/2016:16:37:36 -0400] "GET /ehotel/static/js/jquery.js HTTP/1.1" 304 -
0:0:0:0:0:0:0:1 - - [01/Aug/2016:16:37:36 -0400] "GET /ehotel/login HTTP/1.1" 200 1923
0:0:0:0:0:0:0:1 - - [01/Aug/2016:16:37:36 -0400] "GET /ehotel/static/css/main_style.css HTTP/1.1" 304 -
0:0:0:0:0:0:0:1 - - [01/Aug/2016:16:37:36 -0400] "GET /ehotel/static/image/logo3.png HTTP/1.1" 304 -
0:0:0:0:0:0:0:1 - - [01/Aug/2016:16:38:24 -0400] "GET /ehotel/login HTTP/1.1" 200 1932
0:0:0:0:0:0:0:1 - - [01/Aug/2016:16:38:24 -0400] "GET /ehotel/static/css/main_style.css HTTP/1.1" 304 -
0:0:0:0:0:0:0:1 - - [01/Aug/2016:16:38:24 -0400] "GET /ehotel/static/js/myjs.js HTTP/1.1" 304 -
0:0:0:0:0:0:0:1 - - [01/Aug/2016:16:38:24 -0400] "GET /ehotel/static/js/jquery.js HTTP/1.1" 304 -
0:0:0:0:0:0:0:1 - - [01/Aug/2016:16:38:24 -0400] "GET /ehotel/static/image/logo3.png HTTP/1.1" 304 -
