<?xml version="1.0" encoding="UTF-8"?>
<session version="1.0">
<refactoring comment="Delete resource &apos;Servers/Tomcat v7.0 Server at localhost-config/security-context.xml&apos;" deleteContents="false" description="Delete resource &apos;Servers/Tomcat v7.0 Server at localhost-config/security-context.xml&apos;" element1="/Servers/Tomcat v7.0 Server at localhost-config/security-context.xml" flags="7" id="org.eclipse.ltk.core.refactoring.delete.resources" resources="1" stamp="1469548426311"/>
</session>